// Jest Snapshot v1, https://goo.gl/fbAQLP

exports[`Login component Login: renders correctly 1`] = `
<View
  style={
    Object {
      "height": "100%",
      "width": "100%",
    }
  }
>
  <Image
    source={1}
    style={
      Array [
        Object {
          "bottom": 0,
          "left": 0,
          "position": "absolute",
          "right": 0,
          "top": 0,
        },
        Object {
          "height": "100%",
          "width": "100%",
        },
        undefined,
      ]
    }
  />
  <View
    style={
      Object {
        "backgroundColor": "#000",
        "height": "100%",
        "opacity": 0.45,
        "position": "absolute",
        "width": "100%",
      }
    }
  />
  <View
    style={
      Object {
        "display": "flex",
        "height": "100%",
        "justifyContent": "space-between",
        "paddingBottom": 100,
        "paddingLeft": 35,
        "paddingRight": 35,
        "paddingTop": 100,
        "width": "100%",
      }
    }
  >
    <Text
      accessible={true}
      allowFontScaling={true}
      ellipsizeMode="tail"
      style={
        Object {
          "color": "white",
          "fontSize": 50,
          "textAlign": "center",
        }
      }
    >
      Rentalflats
    </Text>
    <View
      style={
        Object {
          "backgroundColor": "white",
          "borderRadius": 5,
          "opacity": 0.9,
          "padding": 30,
        }
      }
    >
      <TextInput
        allowFontScaling={true}
        autoCapitalize="none"
        onChangeText={[Function]}
        placeholder="Email"
        placeholderTextColor="grey"
        selectionColor="dodgerblue"
        style={
          Object {
            "padding": 5,
          }
        }
        underlineColorAndroid="dodgerblue"
        value=""
      />
      <TextInput
        allowFontScaling={true}
        autoCapitalize="none"
        onChangeText={[Function]}
        placeholder="Password"
        placeholderTextColor="grey"
        secureTextEntry={true}
        selectionColor="dodgerblue"
        style={
          Object {
            "padding": 5,
          }
        }
        underlineColorAndroid="dodgerblue"
        value=""
      />
    </View>
    <View
      accessibilityComponentType="button"
      accessibilityLabel={undefined}
      accessibilityTraits={
        Array [
          "button",
        ]
      }
      accessible={true}
      collapsable={undefined}
      hasTVPreferredFocus={undefined}
      hitSlop={undefined}
      isTVSelectable={true}
      nativeID={undefined}
      onLayout={undefined}
      onResponderGrant={[Function]}
      onResponderMove={[Function]}
      onResponderRelease={[Function]}
      onResponderTerminate={[Function]}
      onResponderTerminationRequest={[Function]}
      onStartShouldSetResponder={[Function]}
      style={
        Object {
          "opacity": 1,
        }
      }
      testID={undefined}
      tvParallaxProperties={undefined}
    >
      <View
        style={
          Array [
            Object {},
          ]
        }
      >
        <Text
          accessible={true}
          allowFontScaling={true}
          disabled={undefined}
          ellipsizeMode="tail"
          style={
            Array [
              Object {
                "color": "#007AFF",
                "fontSize": 18,
                "padding": 8,
                "textAlign": "center",
              },
              Object {
                "color": "dodgerblue",
              },
            ]
          }
        >
          Login
        </Text>
      </View>
    </View>
  </View>
</View>
`;
